EESchema Schematic File Version 4
EELAYER 30 0
EELAYER END
$Descr A4 11693 8268
encoding utf-8
Sheet 1 1
Title ""
Date ""
Rev ""
Comp ""
Comment1 ""
Comment2 ""
Comment3 ""
Comment4 ""
$EndDescr
$Comp
L Device:C_Small C1
U 1 1 6010E553
P 5850 3225
F 0 "C1" V 5621 3225 50  0000 C CNN
F 1 "C_Small" V 5712 3225 50  0000 C CNN
F 2 "Capacitor_SMD:C_0603_1608Metric_Pad1.08x0.95mm_HandSolder" H 5850 3225 50  0001 C CNN
F 3 "~" H 5850 3225 50  0001 C CNN
	1    5850 3225
	0    1    1    0   
$EndComp
Wire Wire Line
	5750 3225 5700 3225
Wire Wire Line
	5700 3225 5700 3300
$Comp
L power:GND #PWR0101
U 1 1 6010EB8A
P 6025 3225
F 0 "#PWR0101" H 6025 2975 50  0001 C CNN
F 1 "GND" V 6030 3097 50  0000 R CNN
F 2 "" H 6025 3225 50  0001 C CNN
F 3 "" H 6025 3225 50  0001 C CNN
	1    6025 3225
	0    -1   -1   0   
$EndComp
Wire Wire Line
	5950 3225 6025 3225
Wire Wire Line
	5700 3225 5575 3225
Connection ~ 5700 3225
$Comp
L power:VCC #PWR0102
U 1 1 6010F3EF
P 5575 3225
F 0 "#PWR0102" H 5575 3075 50  0001 C CNN
F 1 "VCC" V 5590 3352 50  0000 L CNN
F 2 "" H 5575 3225 50  0001 C CNN
F 3 "" H 5575 3225 50  0001 C CNN
	1    5575 3225
	0    -1   -1   0   
$EndComp
$Comp
L power:VCC #PWR0103
U 1 1 6010F91D
P 4725 3650
F 0 "#PWR0103" H 4725 3500 50  0001 C CNN
F 1 "VCC" V 4740 3777 50  0000 L CNN
F 2 "" H 4725 3650 50  0001 C CNN
F 3 "" H 4725 3650 50  0001 C CNN
	1    4725 3650
	0    -1   -1   0   
$EndComp
Text GLabel 5175 3500 0    50   BiDi ~ 0
SDA
Text GLabel 5175 3600 0    50   Input ~ 0
SCL
$Comp
L Connector_Generic:Conn_01x04 J1
U 1 1 60111132
P 3800 3725
F 0 "J1" H 3718 4042 50  0000 C CNN
F 1 "Conn_01x04" H 3718 3951 50  0000 C CNN
F 2 "Connector_PinHeader_2.54mm:PinHeader_1x04_P2.54mm_Vertical" H 3800 3725 50  0001 C CNN
F 3 "~" H 3800 3725 50  0001 C CNN
	1    3800 3725
	-1   0    0    -1  
$EndComp
Wire Wire Line
	4000 3625 4125 3625
Wire Wire Line
	4125 3725 4000 3725
Wire Wire Line
	4000 3825 4125 3825
Wire Wire Line
	4125 3925 4000 3925
$Comp
L power:VCC #PWR0105
U 1 1 60112574
P 4125 3625
F 0 "#PWR0105" H 4125 3475 50  0001 C CNN
F 1 "VCC" V 4140 3753 50  0000 L CNN
F 2 "" H 4125 3625 50  0001 C CNN
F 3 "" H 4125 3625 50  0001 C CNN
	1    4125 3625
	0    1    1    0   
$EndComp
$Comp
L power:GND #PWR0106
U 1 1 60112C4D
P 4125 3725
F 0 "#PWR0106" H 4125 3475 50  0001 C CNN
F 1 "GND" V 4130 3597 50  0000 R CNN
F 2 "" H 4125 3725 50  0001 C CNN
F 3 "" H 4125 3725 50  0001 C CNN
	1    4125 3725
	0    -1   -1   0   
$EndComp
Text GLabel 4125 3925 2    50   Input ~ 0
SCL
$Comp
L Device:R_Small R2
U 1 1 60116CC4
P 4450 4600
F 0 "R2" H 4509 4646 50  0000 L CNN
F 1 "4k7" H 4509 4555 50  0000 L CNN
F 2 "Resistor_SMD:R_0603_1608Metric_Pad1.05x0.95mm_HandSolder" H 4450 4600 50  0001 C CNN
F 3 "~" H 4450 4600 50  0001 C CNN
	1    4450 4600
	1    0    0    -1  
$EndComp
$Comp
L Device:R_Small R1
U 1 1 601174F7
P 4250 4600
F 0 "R1" H 4309 4646 50  0000 L CNN
F 1 "4k7" H 4309 4555 50  0000 L CNN
F 2 "Resistor_SMD:R_0603_1608Metric_Pad1.05x0.95mm_HandSolder" H 4250 4600 50  0001 C CNN
F 3 "~" H 4250 4600 50  0001 C CNN
	1    4250 4600
	1    0    0    -1  
$EndComp
Wire Wire Line
	4250 4500 4250 4425
Wire Wire Line
	4250 4425 4450 4425
Wire Wire Line
	4450 4425 4450 4500
Wire Wire Line
	4450 4425 4450 4300
Connection ~ 4450 4425
$Comp
L power:VCC #PWR0107
U 1 1 601181B6
P 4450 4300
F 0 "#PWR0107" H 4450 4150 50  0001 C CNN
F 1 "VCC" H 4465 4473 50  0000 C CNN
F 2 "" H 4450 4300 50  0001 C CNN
F 3 "" H 4450 4300 50  0001 C CNN
	1    4450 4300
	1    0    0    -1  
$EndComp
Text GLabel 4075 4825 0    50   BiDi ~ 0
SDA
Wire Wire Line
	4250 4700 4250 4825
Wire Wire Line
	4250 4825 4075 4825
Wire Wire Line
	4250 4825 4800 4825
Connection ~ 4250 4825
Text GLabel 4800 4825 2    50   BiDi ~ 0
SDA
Wire Wire Line
	4450 4700 4450 4950
Wire Wire Line
	4450 4950 4075 4950
Text GLabel 4075 4950 0    50   BiDi ~ 0
SCL
Text GLabel 4800 4950 2    50   BiDi ~ 0
SCL
Wire Wire Line
	4450 4950 4800 4950
Connection ~ 4450 4950
$Comp
L Device:Jumper_NO_Small JP1
U 1 1 601269FE
P 4900 3650
F 0 "JP1" H 4900 3835 50  0001 C CNN
F 1 "Jumper_NO_Small" H 4900 3744 50  0001 C CNN
F 2 "Resistor_SMD:R_0402_1005Metric" H 4900 3650 50  0001 C CNN
F 3 "~" H 4900 3650 50  0001 C CNN
	1    4900 3650
	1    0    0    -1  
$EndComp
Wire Wire Line
	5000 3650 5100 3650
Wire Wire Line
	5100 3650 5100 3750
Wire Wire Line
	5100 3950 5000 3950
Wire Wire Line
	5000 3750 5100 3750
Connection ~ 5100 3750
Wire Wire Line
	5100 3850 5000 3850
Connection ~ 5100 3850
Wire Wire Line
	5100 3850 5100 3950
Wire Wire Line
	4725 3650 4800 3650
Wire Wire Line
	4800 3750 4725 3750
Wire Wire Line
	4725 3850 4800 3850
Wire Wire Line
	4800 3950 4725 3950
Text GLabel 4725 3950 0    50   Input ~ 0
SCL
Text GLabel 4725 3850 0    50   Input ~ 0
SDA
$Comp
L power:GND #PWR0108
U 1 1 60131449
P 4725 3750
F 0 "#PWR0108" H 4725 3500 50  0001 C CNN
F 1 "GND" V 4730 3622 50  0000 R CNN
F 2 "" H 4725 3750 50  0001 C CNN
F 3 "" H 4725 3750 50  0001 C CNN
	1    4725 3750
	0    1    1    0   
$EndComp
Text GLabel 4125 3825 2    50   BiDi ~ 0
SDA
$Comp
L Device:Jumper_NO_Small JP2
U 1 1 6013E354
P 4900 3750
F 0 "JP2" H 4900 3935 50  0001 C CNN
F 1 "Jumper_NO_Small" H 4900 3844 50  0001 C CNN
F 2 "Resistor_SMD:R_0402_1005Metric" H 4900 3750 50  0001 C CNN
F 3 "~" H 4900 3750 50  0001 C CNN
	1    4900 3750
	1    0    0    -1  
$EndComp
$Comp
L Device:Jumper_NO_Small JP3
U 1 1 6013E675
P 4900 3850
F 0 "JP3" H 4900 4035 50  0001 C CNN
F 1 "Jumper_NO_Small" H 4900 3944 50  0001 C CNN
F 2 "Resistor_SMD:R_0402_1005Metric" H 4900 3850 50  0001 C CNN
F 3 "~" H 4900 3850 50  0001 C CNN
	1    4900 3850
	1    0    0    -1  
$EndComp
$Comp
L Device:Jumper_NO_Small JP4
U 1 1 6013E97F
P 4900 3950
F 0 "JP4" H 4900 4135 50  0001 C CNN
F 1 "Jumper_NO_Small" H 4900 4044 50  0001 C CNN
F 2 "Resistor_SMD:R_0402_1005Metric" H 4900 3950 50  0001 C CNN
F 3 "~" H 4900 3950 50  0001 C CNN
	1    4900 3950
	1    0    0    -1  
$EndComp
$Comp
L TMP112:TMP112 U1
U 1 1 6154A922
P 5700 3700
F 0 "U1" H 6144 3746 50  0000 L CNN
F 1 "TMP112" H 6144 3655 50  0000 L CNN
F 2 "Package_TO_SOT_SMD:SOT-563" H 5700 3350 50  0001 C CNN
F 3 "" H 5650 3700 50  0001 C CNN
	1    5700 3700
	1    0    0    -1  
$EndComp
Wire Wire Line
	5100 3750 5100 3800
$Comp
L power:GND #PWR0104
U 1 1 6010FFCB
P 5700 4175
F 0 "#PWR0104" H 5700 3925 50  0001 C CNN
F 1 "GND" H 5705 4002 50  0000 C CNN
F 2 "" H 5700 4175 50  0001 C CNN
F 3 "" H 5700 4175 50  0001 C CNN
	1    5700 4175
	1    0    0    -1  
$EndComp
Wire Wire Line
	5700 4100 5700 4175
Wire Wire Line
	5300 3800 5100 3800
Connection ~ 5100 3800
Wire Wire Line
	5100 3800 5100 3850
Wire Wire Line
	5175 3500 5300 3500
Wire Wire Line
	5300 3600 5175 3600
$EndSCHEMATC
