G04 #@! TF.GenerationSoftware,KiCad,Pcbnew,(5.1.10)-1*
G04 #@! TF.CreationDate,2021-09-29T18:33:29+02:00*
G04 #@! TF.ProjectId,KiCAD_TMP112_interface,4b694341-445f-4544-9d50-3131325f696e,rev?*
G04 #@! TF.SameCoordinates,Original*
G04 #@! TF.FileFunction,Paste,Top*
G04 #@! TF.FilePolarity,Positive*
%FSLAX46Y46*%
G04 Gerber Fmt 4.6, Leading zero omitted, Abs format (unit mm)*
G04 Created by KiCad (PCBNEW (5.1.10)-1) date 2021-09-29 18:33:29*
%MOMM*%
%LPD*%
G01*
G04 APERTURE LIST*
%ADD10R,0.700000X0.400000*%
G04 APERTURE END LIST*
D10*
X150650000Y-129200000D03*
X150650000Y-129700000D03*
X149150000Y-129200000D03*
X150650000Y-128700000D03*
X149150000Y-129700000D03*
X149150000Y-128700000D03*
G36*
G01*
X152760000Y-130515000D02*
X152760000Y-130885000D01*
G75*
G02*
X152625000Y-131020000I-135000J0D01*
G01*
X152355000Y-131020000D01*
G75*
G02*
X152220000Y-130885000I0J135000D01*
G01*
X152220000Y-130515000D01*
G75*
G02*
X152355000Y-130380000I135000J0D01*
G01*
X152625000Y-130380000D01*
G75*
G02*
X152760000Y-130515000I0J-135000D01*
G01*
G37*
G36*
G01*
X153780000Y-130515000D02*
X153780000Y-130885000D01*
G75*
G02*
X153645000Y-131020000I-135000J0D01*
G01*
X153375000Y-131020000D01*
G75*
G02*
X153240000Y-130885000I0J135000D01*
G01*
X153240000Y-130515000D01*
G75*
G02*
X153375000Y-130380000I135000J0D01*
G01*
X153645000Y-130380000D01*
G75*
G02*
X153780000Y-130515000I0J-135000D01*
G01*
G37*
G36*
G01*
X152760000Y-129515000D02*
X152760000Y-129885000D01*
G75*
G02*
X152625000Y-130020000I-135000J0D01*
G01*
X152355000Y-130020000D01*
G75*
G02*
X152220000Y-129885000I0J135000D01*
G01*
X152220000Y-129515000D01*
G75*
G02*
X152355000Y-129380000I135000J0D01*
G01*
X152625000Y-129380000D01*
G75*
G02*
X152760000Y-129515000I0J-135000D01*
G01*
G37*
G36*
G01*
X153780000Y-129515000D02*
X153780000Y-129885000D01*
G75*
G02*
X153645000Y-130020000I-135000J0D01*
G01*
X153375000Y-130020000D01*
G75*
G02*
X153240000Y-129885000I0J135000D01*
G01*
X153240000Y-129515000D01*
G75*
G02*
X153375000Y-129380000I135000J0D01*
G01*
X153645000Y-129380000D01*
G75*
G02*
X153780000Y-129515000I0J-135000D01*
G01*
G37*
G36*
G01*
X152760000Y-128515000D02*
X152760000Y-128885000D01*
G75*
G02*
X152625000Y-129020000I-135000J0D01*
G01*
X152355000Y-129020000D01*
G75*
G02*
X152220000Y-128885000I0J135000D01*
G01*
X152220000Y-128515000D01*
G75*
G02*
X152355000Y-128380000I135000J0D01*
G01*
X152625000Y-128380000D01*
G75*
G02*
X152760000Y-128515000I0J-135000D01*
G01*
G37*
G36*
G01*
X153780000Y-128515000D02*
X153780000Y-128885000D01*
G75*
G02*
X153645000Y-129020000I-135000J0D01*
G01*
X153375000Y-129020000D01*
G75*
G02*
X153240000Y-128885000I0J135000D01*
G01*
X153240000Y-128515000D01*
G75*
G02*
X153375000Y-128380000I135000J0D01*
G01*
X153645000Y-128380000D01*
G75*
G02*
X153780000Y-128515000I0J-135000D01*
G01*
G37*
G36*
G01*
X152760000Y-127515000D02*
X152760000Y-127885000D01*
G75*
G02*
X152625000Y-128020000I-135000J0D01*
G01*
X152355000Y-128020000D01*
G75*
G02*
X152220000Y-127885000I0J135000D01*
G01*
X152220000Y-127515000D01*
G75*
G02*
X152355000Y-127380000I135000J0D01*
G01*
X152625000Y-127380000D01*
G75*
G02*
X152760000Y-127515000I0J-135000D01*
G01*
G37*
G36*
G01*
X153780000Y-127515000D02*
X153780000Y-127885000D01*
G75*
G02*
X153645000Y-128020000I-135000J0D01*
G01*
X153375000Y-128020000D01*
G75*
G02*
X153240000Y-127885000I0J135000D01*
G01*
X153240000Y-127515000D01*
G75*
G02*
X153375000Y-127380000I135000J0D01*
G01*
X153645000Y-127380000D01*
G75*
G02*
X153780000Y-127515000I0J-135000D01*
G01*
G37*
G36*
G01*
X149850000Y-132562500D02*
X149850000Y-133037500D01*
G75*
G02*
X149612500Y-133275000I-237500J0D01*
G01*
X149037500Y-133275000D01*
G75*
G02*
X148800000Y-133037500I0J237500D01*
G01*
X148800000Y-132562500D01*
G75*
G02*
X149037500Y-132325000I237500J0D01*
G01*
X149612500Y-132325000D01*
G75*
G02*
X149850000Y-132562500I0J-237500D01*
G01*
G37*
G36*
G01*
X151600000Y-132562500D02*
X151600000Y-133037500D01*
G75*
G02*
X151362500Y-133275000I-237500J0D01*
G01*
X150787500Y-133275000D01*
G75*
G02*
X150550000Y-133037500I0J237500D01*
G01*
X150550000Y-132562500D01*
G75*
G02*
X150787500Y-132325000I237500J0D01*
G01*
X151362500Y-132325000D01*
G75*
G02*
X151600000Y-132562500I0J-237500D01*
G01*
G37*
G36*
G01*
X149850000Y-131162500D02*
X149850000Y-131637500D01*
G75*
G02*
X149612500Y-131875000I-237500J0D01*
G01*
X149037500Y-131875000D01*
G75*
G02*
X148800000Y-131637500I0J237500D01*
G01*
X148800000Y-131162500D01*
G75*
G02*
X149037500Y-130925000I237500J0D01*
G01*
X149612500Y-130925000D01*
G75*
G02*
X149850000Y-131162500I0J-237500D01*
G01*
G37*
G36*
G01*
X151600000Y-131162500D02*
X151600000Y-131637500D01*
G75*
G02*
X151362500Y-131875000I-237500J0D01*
G01*
X150787500Y-131875000D01*
G75*
G02*
X150550000Y-131637500I0J237500D01*
G01*
X150550000Y-131162500D01*
G75*
G02*
X150787500Y-130925000I237500J0D01*
G01*
X151362500Y-130925000D01*
G75*
G02*
X151600000Y-131162500I0J-237500D01*
G01*
G37*
G36*
G01*
X150725000Y-127137500D02*
X150725000Y-126662500D01*
G75*
G02*
X150962500Y-126425000I237500J0D01*
G01*
X151562500Y-126425000D01*
G75*
G02*
X151800000Y-126662500I0J-237500D01*
G01*
X151800000Y-127137500D01*
G75*
G02*
X151562500Y-127375000I-237500J0D01*
G01*
X150962500Y-127375000D01*
G75*
G02*
X150725000Y-127137500I0J237500D01*
G01*
G37*
G36*
G01*
X149000000Y-127137500D02*
X149000000Y-126662500D01*
G75*
G02*
X149237500Y-126425000I237500J0D01*
G01*
X149837500Y-126425000D01*
G75*
G02*
X150075000Y-126662500I0J-237500D01*
G01*
X150075000Y-127137500D01*
G75*
G02*
X149837500Y-127375000I-237500J0D01*
G01*
X149237500Y-127375000D01*
G75*
G02*
X149000000Y-127137500I0J237500D01*
G01*
G37*
M02*
